Registrador1bit/simulation/qsim/Registrador1bit.msim.vcd
$comment
	File created using the following command:
		vcd file Registrador1bit.msim.vcd -direction
$end
$date
	Thu Apr 26 16:43:10 2018
$end
$version
	ModelSim Version 10.1d
$end
$timescale
	1ps
$end
$scope module Registrador1bit_vlg_vec_tst $end
$var reg 1 ! clear $end
$var reg 1 " clock $end
$var reg 1 # D $end
$var reg 1 $ load $end
$var wire 1 % Q $end
$var wire 1 & sampler $end
$scope module i1 $end
$var wire 1 ' gnd $end
$var wire 1 ( vcc $end
$var wire 1 ) unknown $end
$var tri1 1 * devclrn $end
$var tri1 1 + devpor $end
$var tri1 1 , devoe $end
$var wire 1 - clock~combout $end
$var wire 1 . clock~clkctrl_outclk $end
$var wire 1 / D~combout $end
$var wire 1 0 clear~combout $end
$var wire 1 1 clear~clkctrl_outclk $end
$var wire 1 2 aux~regout $end
$var wire 1 3 load~combout $end
$var wire 1 4 Q~0_combout $end
$var wire 1 5 Q~reg0feeder_combout $end
$var wire 1 6 Q~reg0_regout $end
$upscope $end
$upscope $end
$enddefinitions $end
#0
$dumpvars
0!
0"
0#
0$
0%
x&
0'
1(
x)
1*
1+
1,
0-
0.
0/
00
01
02
03
04
05
06
$end
#10000
1"
1$
1-
13
1.
0&
#20000
1#
0"
1/
0-
0.
1&
14
15
#30000
1"
1-
1.
0&
16
12
1%
#40000
0$
0"
03
0-
0.
1&
#50000
0#
1$
1"
0/
13
1-
1.
0&
04
05
#60000
0"
0-
0.
1&
#70000
1#
1"
1/
1-
1.
0&
14
15
06
02
0%
#80000
0$
0#
0"
03
0/
0-
0.
1&
04
05
#90000
1$
1#
1"
13
1/
1-
1.
0&
14
15
#100000
0$
0"
03
0-
0.
1&
04
05
#110000
0#
1"
0/
1-
1.
0&
#120000
1#
0"
1/
0-
0.
1&
#130000
1"
1-
1.
0&
#140000
0#
0"
0/
0-
0.
1&
#150000
1#
1"
1/
1-
1.
0&
#160000
1$
0"
13
0-
0.
1&
14
15
#170000
0#
1"
0/
1-
1.
0&
04
05
16
12
1%
#180000
0$
0"
03
0-
0.
1&
14
15
#190000
1"
1-
1.
0&
#200000
1#
0"
1/
0-
0.
1&
#210000
1"
1-
1.
0&
#220000
0"
0-
0.
1&
#230000
1$
1"
13
1-
1.
0&
#240000
0$
0"
03
0-
0.
1&
#250000
0#
1$
1"
0/
13
1-
1.
0&
04
05
#260000
0"
0-
0.
1&
#270000
1"
1-
1.
0&
06
02
0%
#280000
0"
0-
0.
1&
#290000
0$
1"
03
1-
1.
0&
#300000
1$
0"
13
0-
0.
1&
#310000
0$
1"
03
1-
1.
0&
#320000
1#
1$
0"
1/
13
0-
0.
1&
14
15
#330000
1"
1-
1.
0&
16
12
1%
#340000
0"
0-
0.
1&
#350000
0#
0$
1"
0/
03
1-
1.
0&
#360000
0"
0-
0.
1&
#370000
1#
1$
1"
1/
13
1-
1.
0&
#380000
0#
0$
0"
0/
03
0-
0.
1&
#390000
1#
1"
1/
1-
1.
0&
#400000
0#
0"
0/
0-
0.
1&
#410000
1#
1"
1/
1-
1.
0&
#420000
1$
0#
0"
13
0/
0-
0.
1&
04
05
#430000
1"
1-
1.
0&
06
02
0%
#440000
0$
1#
0"
03
1/
0-
0.
1&
#450000
1$
1"
13
1-
1.
0&
14
15
#460000
0$
0"
03
0-
0.
1&
04
05
#470000
0#
1"
0/
1-
1.
0&
#480000
1#
0"
1/
0-
0.
1&
#490000
1"
1-
1.
0&
#500000
0#
0"
0/
0-
0.
1&
#510000
1$
1"
13
1-
1.
0&
#520000
1#
0$
0"
1/
03
0-
0.
1&
#530000
1$
1"
13
1-
1.
0&
14
15
#540000
0$
0"
03
0-
0.
1&
04
05
#550000
1$
1"
13
1-
1.
0&
14
15
#560000
0#
0$
0"
0/
03
0-
0.
1&
04
05
#570000
1#
1$
1"
1/
13
1-
1.
0&
14
15
#580000
0#
0"
0/
0-
0.
1&
04
05
#590000
0$
1#
1"
03
1/
1-
1.
0&
#600000
1$
0"
13
0-
0.
1&
14
15
#610000
0#
1"
0/
1-
1.
0&
04
05
16
12
1%
#620000
0"
0-
0.
1&
#630000
1"
1-
1.
0&
06
02
0%
#640000
0$
0"
03
0-
0.
1&
#650000
1#
1"
1/
1-
1.
0&
#660000
0"
0-
0.
1&
#670000
1$
1"
13
1-
1.
0&
14
15
#680000
0"
0-
0.
1&
#690000
0#
1"
0/
1-
1.
0&
04
05
16
12
1%
#700000
0"
0-
0.
1&
#710000
0$
1#
1"
03
1/
1-
1.
0&
14
15
06
02
04
0%
05
#720000
0#
0"
0/
0-
0.
1&
#730000
1#
1"
1/
1-
1.
0&
#740000
0"
0-
0.
1&
#750000
1$
0#
1"
13
0/
1-
1.
0&
#760000
0$
0"
03
0-
0.
1&
#770000
1$
1"
13
1-
1.
0&
#780000
1#
0"
1/
0-
0.
1&
14
15
#790000
1"
1-
1.
0&
16
12
1%
#800000
0$
0#
0"
03
0/
0-
0.
1&
#810000
1#
1"
1/
1-
1.
0&
#820000
0#
0"
0/
0-
0.
1&
#830000
1$
1"
13
1-
1.
0&
04
05
#840000
0"
0-
0.
1&
#850000
1#
1"
1/
1-
1.
0&
14
15
06
02
0%
#860000
0#
0"
0/
0-
0.
1&
04
05
#870000
0$
1"
03
1-
1.
0&
#880000
0"
0-
0.
1&
#890000
1#
1"
1/
1-
1.
0&
#900000
1$
0#
0"
13
0/
0-
0.
1&
#910000
0$
1#
1"
03
1/
1-
1.
0&
#920000
1$
0#
0"
13
0/
0-
0.
1&
#930000
1"
1-
1.
0&
#940000
1#
0"
1/
0-
0.
1&
14
15
#950000
0#
1"
0/
1-
1.
0&
04
05
16
12
1%
#960000
0"
0-
0.
1&
#970000
0$
1#
1"
03
1/
1-
1.
0&
14
15
06
02
04
0%
05
#980000
0"
0-
0.
1&
#990000
1$
0#
1"
13
0/
1-
1.
0&
