FFJK/simulation/qsim/FlipFlopJK.msim.vcd
$comment
	File created using the following command:
		vcd file FlipFlopJK.msim.vcd -direction
$end
$date
	Thu Apr 26 15:51:10 2018
$end
$version
	ModelSim Version 10.1d
$end
$timescale
	1ps
$end
$scope module FlipFlopJK_vlg_vec_tst $end
$var reg 1 ! clock $end
$var reg 1 " J $end
$var reg 1 # K $end
$var reg 1 $ preset $end
$var wire 1 % Q $end
$var wire 1 & Q_NOT $end
$var wire 1 ' sampler $end
$scope module i1 $end
$var wire 1 ( gnd $end
$var wire 1 ) vcc $end
$var wire 1 * unknown $end
$var tri1 1 + devclrn $end
$var tri1 1 , devpor $end
$var tri1 1 - devoe $end
$var wire 1 . Q~output_o $end
$var wire 1 / Q_NOT~output_o $end
$var wire 1 0 clock~input_o $end
$var wire 1 1 clock~inputclkctrl_outclk $end
$var wire 1 2 K~input_o $end
$var wire 1 3 J~input_o $end
$var wire 1 4 aux[31]~0_combout $end
$var wire 1 5 preset~input_o $end
$var wire 1 6 preset~inputclkctrl_outclk $end
$var wire 1 7 Q~0_combout $end
$var wire 1 8 Q~reg0_q $end
$var wire 1 9 Q_NOT~0_combout $end
$var wire 1 : Q_NOT~1_combout $end
$var wire 1 ; Q_NOT~reg0_q $end
$var wire 1 < aux [31] $end
$var wire 1 = aux [30] $end
$var wire 1 > aux [29] $end
$var wire 1 ? aux [28] $end
$var wire 1 @ aux [27] $end
$var wire 1 A aux [26] $end
$var wire 1 B aux [25] $end
$var wire 1 C aux [24] $end
$var wire 1 D aux [23] $end
$var wire 1 E aux [22] $end
$var wire 1 F aux [21] $end
$var wire 1 G aux [20] $end
$var wire 1 H aux [19] $end
$var wire 1 I aux [18] $end
$var wire 1 J aux [17] $end
$var wire 1 K aux [16] $end
$var wire 1 L aux [15] $end
$var wire 1 M aux [14] $end
$var wire 1 N aux [13] $end
$var wire 1 O aux [12] $end
$var wire 1 P aux [11] $end
$var wire 1 Q aux [10] $end
$var wire 1 R aux [9] $end
$var wire 1 S aux [8] $end
$var wire 1 T aux [7] $end
$var wire 1 U aux [6] $end
$var wire 1 V aux [5] $end
$var wire 1 W aux [4] $end
$var wire 1 X aux [3] $end
$var wire 1 Y aux [2] $end
$var wire 1 Z aux [1] $end
$var wire 1 [ aux [0] $end
$upscope $end
$upscope $end
$enddefinitions $end
#0
$dumpvars
0!
1"
1#
0$
1%
0&
x'
0(
1)
x*
1+
1,
1-
1.
0/
00
01
12
13
04
05
06
17
08
19
1:
0;
z[
zZ
zY
zX
zW
zV
zU
zT
zS
zR
zQ
zP
zO
zN
zM
zL
zK
zJ
zI
zH
zG
zF
zE
zD
zC
zB
zA
z@
z?
z>
z=
0<
$end
#10000
1!
10
11
0'
18
1;
09
07
0.
1/
0%
1&
0:
#20000
0"
0#
0!
03
02
00
01
1'
1:
17
#30000
1#
1!
12
10
11
0'
#40000
1"
0!
13
00
01
1'
0:
07
#50000
0"
1!
03
10
11
0'
1:
17
08
0;
19
1.
0/
1%
0&
#60000
0!
00
01
1'
#70000
1"
1!
13
10
11
0'
18
1;
09
07
0.
1/
0%
1&
0:
#80000
0!
00
01
1'
#90000
1!
10
11
0'
08
0;
19
17
1.
0/
1%
0&
1:
#100000
0#
0"
0!
02
03
00
01
1'
09
07
0:
#110000
1#
1!
12
10
11
0'
1:
19
17
#120000
0!
00
01
1'
#130000
1"
1!
13
10
11
0'
18
1;
09
07
0.
1/
0%
1&
0:
#140000
0!
00
01
1'
#150000
0#
1!
02
10
11
0'
08
0;
1.
0/
1%
0&
#160000
0"
0!
03
00
01
1'
#170000
1#
1"
1!
12
13
10
11
0'
19
17
1:
#180000
0!
00
01
1'
#190000
1!
10
11
0'
18
1;
09
07
0.
1/
0%
1&
0:
#200000
0#
0!
02
00
01
1'
#210000
1!
10
11
0'
08
0;
1.
0/
1%
0&
#220000
1#
0!
12
00
01
1'
19
17
1:
#230000
1!
10
11
0'
18
1;
09
07
0.
1/
0%
1&
0:
#240000
0"
0#
0!
03
02
00
01
1'
1:
17
#250000
1"
1!
13
10
11
0'
0:
07
#260000
1#
0!
12
00
01
1'
#270000
1!
10
11
0'
08
0;
19
17
1.
0/
1%
0&
1:
#280000
0"
0#
0!
03
02
00
01
1'
07
09
0:
#290000
1#
1!
12
10
11
0'
1:
19
17
#300000
1"
0#
0!
13
02
00
01
1'
07
09
0:
#310000
1!
10
11
0'
#320000
0!
00
01
1'
#330000
1#
1!
12
10
11
0'
19
17
1:
#340000
0#
0!
02
00
01
1'
09
07
0:
#350000
0"
1#
1!
03
12
10
11
0'
1:
17
19
#360000
0!
00
01
1'
#370000
0#
1!
02
10
11
0'
09
07
0:
18
1;
17
1:
0.
1/
0%
1&
#380000
0!
00
01
1'
#390000
1"
1!
13
10
11
0'
0:
07
#400000
0!
00
01
1'
#410000
0"
1!
03
10
11
0'
1:
17
08
0;
07
0:
1.
0/
1%
0&
#420000
1"
0!
13
00
01
1'
#430000
1!
10
11
0'
#440000
0!
00
01
1'
#450000
1#
0"
1!
12
03
10
11
0'
1:
19
17
#460000
1"
0!
13
00
01
1'
#470000
0#
1!
02
10
11
0'
09
07
0:
18
1;
0.
1/
0%
1&
#480000
0"
0!
03
00
01
1'
1:
17
#490000
1"
1!
13
10
11
0'
0:
07
#500000
1#
0"
0!
12
03
00
01
1'
1:
17
#510000
0#
1"
1!
02
13
10
11
0'
0:
07
#520000
0!
00
01
1'
#530000
0"
1!
03
10
11
0'
1:
17
08
0;
07
0:
1.
0/
1%
0&
#540000
1#
1"
0!
12
13
00
01
1'
19
17
1:
#550000
1!
10
11
0'
18
1;
09
07
0.
1/
0%
1&
0:
#560000
0#
0!
02
00
01
1'
#570000
0"
1!
03
10
11
0'
1:
17
08
0;
07
0:
1.
0/
1%
0&
#580000
0!
00
01
1'
#590000
1#
1!
12
10
11
0'
1:
19
17
#600000
0!
00
01
1'
#610000
1"
0#
1!
13
02
10
11
0'
07
09
0:
18
1;
0.
1/
0%
1&
#620000
0"
1#
0!
03
12
00
01
1'
1:
17
#630000
1!
10
11
0'
#640000
1"
0!
13
00
01
1'
0:
07
#650000
0#
0"
1!
02
03
10
11
0'
1:
17
08
0;
07
0:
1.
0/
1%
0&
#660000
0!
00
01
1'
#670000
1"
1!
13
10
11
0'
#680000
1#
0!
12
00
01
1'
19
17
1:
#690000
0"
1!
03
10
11
0'
18
1;
09
0.
1/
0%
1&
#700000
1"
0!
13
00
01
1'
0:
07
#710000
0"
1!
03
10
11
0'
1:
17
08
0;
19
1.
0/
1%
0&
#720000
1"
0!
13
00
01
1'
#730000
0#
0"
1!
02
03
10
11
0'
09
07
0:
18
1;
17
1:
0.
1/
0%
1&
#740000
1#
0!
12
00
01
1'
#750000
0#
1!
02
10
11
0'
#760000
1#
0!
12
00
01
1'
#770000
1"
1!
13
10
11
0'
0:
07
#780000
0#
0!
02
00
01
1'
#790000
1#
1!
12
10
11
0'
08
0;
19
17
1.
0/
1%
0&
1:
#800000
0!
00
01
1'
#810000
1!
10
11
0'
18
1;
09
07
0.
1/
0%
1&
0:
#820000
0!
00
01
1'
#830000
0"
1!
03
10
11
0'
1:
17
08
0;
19
1.
0/
1%
0&
#840000
0#
1"
0!
02
13
00
01
1'
09
07
0:
#850000
1#
1!
12
10
11
0'
19
17
1:
#860000
0"
0!
03
00
01
1'
#870000
1"
1!
13
10
11
0'
18
1;
09
07
0.
1/
0%
1&
0:
#880000
0!
00
01
1'
#890000
1!
10
11
0'
08
0;
19
17
1.
0/
1%
0&
1:
#900000
0#
0"
0!
02
03
00
01
1'
09
07
0:
#910000
1"
1!
13
10
11
0'
#920000
0"
0!
03
00
01
1'
#930000
1"
1!
13
10
11
0'
#940000
0"
0!
03
00
01
1'
#950000
1!
10
11
0'
#960000
1#
0!
12
00
01
1'
1:
19
17
#970000
1"
1!
13
10
11
0'
18
1;
09
07
0.
1/
0%
1&
0:
#980000
0#
0"
0!
02
03
00
01
1'
1:
17
#990000
1"
1!
13
10
11
0'
0:
07
