ULA/simulation/qsim/ULA.msim.vcd
$comment
	File created using the following command:
		vcd file ULA.msim.vcd -direction
$end
$date
	Tue Mar 06 22:59:15 2018
$end
$version
	ModelSim Version 10.1d
$end
$timescale
	1ps
$end
$scope module ULA_vlg_vec_tst $end
$var reg 4 ! A [3:0] $end
$var reg 4 " B [3:0] $end
$var reg 3 # F [2:0] $end
$var wire 1 $ display7 [6] $end
$var wire 1 % display7 [5] $end
$var wire 1 & display7 [4] $end
$var wire 1 ' display7 [3] $end
$var wire 1 ( display7 [2] $end
$var wire 1 ) display7 [1] $end
$var wire 1 * display7 [0] $end
$var wire 1 + display72 [6] $end
$var wire 1 , display72 [5] $end
$var wire 1 - display72 [4] $end
$var wire 1 . display72 [3] $end
$var wire 1 / display72 [2] $end
$var wire 1 0 display72 [1] $end
$var wire 1 1 display72 [0] $end
$var wire 1 2 VLED $end
$var wire 1 3 Z $end
$var wire 1 4 sampler $end
$scope module i1 $end
$var wire 1 5 gnd $end
$var wire 1 6 vcc $end
$var wire 1 7 unknown $end
$var tri1 1 8 devclrn $end
$var tri1 1 9 devpor $end
$var tri1 1 : devoe $end
$var wire 1 ; Adder4bits|Adder0|carryOut~1_combout $end
$var wire 1 < Adder4bits|Adder1|carryOut~0_combout $end
$var wire 1 = Adder4bits|Adder2|saida~0_combout $end
$var wire 1 > saidaint[3]~13_combout $end
$var wire 1 ? saidaint[3]~14_combout $end
$var wire 1 @ Equal21~0_combout $end
$var wire 1 A Adder4bits|Adder3|carryOut~0_combout $end
$var wire 1 B Equal4~1_combout $end
$var wire 1 C saidaint[1]~17_combout $end
$var wire 1 D saidaint[0]~21_combout $end
$var wire 1 E saidaint[0]~22_combout $end
$var wire 1 F saidaint[1]~18_combout $end
$var wire 1 G Equal4~0_combout $end
$var wire 1 H sub~combout $end
$var wire 1 I Adder4bits|Adder0|carryOut~0_combout $end
$var wire 1 J Adder4bits|Adder1|saida~combout $end
$var wire 1 K saidaint[1]~3_combout $end
$var wire 1 L saidaint[1]~8_combout $end
$var wire 1 M saidaint[1]~9_combout $end
$var wire 1 N saidaint[3]~10_combout $end
$var wire 1 O saidaint[3]~11_combout $end
$var wire 1 P saidaint[3]~12_combout $end
$var wire 1 Q saidaint[3]~15_combout $end
$var wire 1 R saidaint[1]~2_combout $end
$var wire 1 S saidaint[0]~16_combout $end
$var wire 1 T saidaint[0]~4_combout $end
$var wire 1 U saidaint[0]~5_combout $end
$var wire 1 V display[4]~2_combout $end
$var wire 1 W Multi|Multix3|Adder2|saida~0_combout $end
$var wire 1 X saidaint[2]~19_combout $end
$var wire 1 Y saidaint[2]~20_combout $end
$var wire 1 Z saidaint[2]~6_combout $end
$var wire 1 [ saidaint[2]~7_combout $end
$var wire 1 \ display[2]~0_combout $end
$var wire 1 ] Equal21~1_combout $end
$var wire 1 ^ display[3]~3_combout $end
$var wire 1 _ display[6]~1_combout $end
$var wire 1 ` Equal21~2_combout $end
$var wire 1 a Adder4bits|Adder2|carryOut~0_combout $end
$var wire 1 b VLED~0_combout $end
$var wire 1 c Multi|over~0_combout $end
$var wire 1 d VLED~1_combout $end
$var wire 1 e display[0]~4_combout $end
$var wire 1 f display[1]~5_combout $end
$var wire 1 g display[5]~6_combout $end
$var wire 1 h Adder4bits|bop [3] $end
$var wire 1 i Adder4bits|bop [2] $end
$var wire 1 j Adder4bits|bop [1] $end
$var wire 1 k Adder4bits|bop [0] $end
$var wire 1 l F~combout [2] $end
$var wire 1 m F~combout [1] $end
$var wire 1 n F~combout [0] $end
$var wire 1 o B~combout [3] $end
$var wire 1 p B~combout [2] $end
$var wire 1 q B~combout [1] $end
$var wire 1 r B~combout [0] $end
$var wire 1 s A~combout [3] $end
$var wire 1 t A~combout [2] $end
$var wire 1 u A~combout [1] $end
$var wire 1 v A~combout [0] $end
$upscope $end
$upscope $end
$enddefinitions $end
#0
$dumpvars
b1100 !
b100 "
b0 #
0*
0)
1(
1'
0&
0%
1$
11
10
1/
1.
1-
1,
1+
02
03
x4
05
16
x7
18
19
1:
x;
x<
x=
1>
1?
1@
xA
0B
0C
0D
0E
0F
0G
xH
0I
xJ
0K
0L
0M
0N
1O
0P
1Q
0R
0S
0T
0U
0V
1W
1X
1Y
1Z
1[
1\
0]
1^
1_
0`
xa
0b
1c
0d
0e
0f
0g
zk
xj
zi
zh
0n
0m
0l
0r
0q
1p
0o
0v
0u
1t
1s
$end
#5000
b1110 !
b1111 !
b1100 "
b1101 "
1r
1o
1v
1u
04
1I
0;
1N
0c
1D
1C
1<
0Q
0>
1E
1a
0?
1U
01
1A
1f
0_
0^
0@
1)
0$
0'
#10000
b111 !
b1001 "
b1011 "
b1 #
b101 !
b1010 "
1n
0r
1q
0p
0u
0s
14
1F
0C
xI
x;
1c
x<
1P
0N
xA
1L
xa
1M
1e
1_
1^
1*
1$
1'
#15000
b10 "
b0 "
b111 !
b1 "
1u
1r
0q
0o
04
0O
1C
1I
0;
0F
1N
1F
1<
0L
1Q
1L
1a
0M
0_
11
1M
1g
0f
0e
0^
0$
0g
1f
1e
1^
1%
0)
0*
0'
0%
1)
1*
1'
#20000
b11 !
b11 #
b10 !
b1010 !
b101 "
b10 #
b111 "
b1000 !
1q
1p
0n
1m
0v
0u
0t
1s
14
0D
xa
0C
0X
1R
1O
1G
x>
xb
0U
0P
0W
0I
x<
0N
1A
0E
xA
x?
0F
0Y
0[
0Z
1S
xL
0H
xd
1g
0f
0e
0^
0\
0Q
0<
1U
xQ
x[
xM
0a
1j
1>
1=
x2
1%
0)
0*
0'
0(
01
xg
xf
xe
x_
x^
1\
0A
0?
1J
1[
x1
0b
0Q
1L
x%
x)
x*
x$
x'
1(
0d
0g
1f
1M
01
1e
1_
1^
02
0%
1)
1*
1$
1'
#25000
b1111 "
b1100 !
b1101 !
1v
1t
1o
04
1W
0S
1I
1D
1a
1X
0=
1N
1A
0[
0U
0J
1<
1E
1?
1Y
0>
1g
0f
0e
0_
0^
0\
0L
1=
1Q
0?
0M
1[
0g
1f
1V
0Q
1%
0)
0*
0$
0'
0(
11
0f
1_
1^
1\
0V
1@
0%
1)
1&
01
0)
1$
1'
1(
0&
#30000
b1110 "
b101 !
b1010 "
b11 #
b111 !
b110 !
1n
0v
1u
0s
0r
0p
14
0O
0G
1F
0D
1C
1B
0W
0I
1J
0N
0=
1H
1L
0E
0[
0J
1>
0j
0A
0>
1=
1;
1M
0_
0^
0\
0L
1?
1b
0?
1[
1g
0@
0M
1Q
0$
0'
0(
1d
0Q
0g
1_
1^
1\
1@
1%
11
12
01
0%
1$
1'
1(
#35000
b1000 "
b10 !
b1001 "
b1101 "
b11 !
1v
0t
1r
0q
1p
04
1O
1I
1D
0a
0X
1E
0;
1j
1J
0b
1?
1L
0d
1Q
1M
02
11
1g
0_
0^
0\
0@
1%
0$
0'
0(
#40000
b111 #
b101 #
b100 #
b1111 "
b1110 "
0r
1q
0n
0m
1l
14
1S
1;
0j
0F
0R
0B
1>
1U
1P
0J
0L
0[
1Z
0S
0?
0g
1f
1e
1^
1\
0M
0e
0^
1[
0Q
0%
1)
1*
1'
1(
0*
0'
01
#45000
b110 "
b1 !
b0 !
b100 "
0v
0u
0q
0o
04
0c
0I
0D
1J
0C
0<
1j
1F
1N
0J
1<
0E
1L
0F
0=
1Q
0>
0L
1=
0U
1M
1g
0f
1?
11
0M
0\
1%
0)
0g
1_
1^
1\
1@
0(
0%
1$
1'
1(
#50000
b100 !
b0 "
b101 #
b110 !
b10 "
1n
1q
0p
1u
1t
14
0Y
0O
1D
0j
1a
1c
1J
0Z
1E
0J
1A
0[
1U
1f
1e
0@
1)
1*
#55000
b11 "
b1011 "
b100 !
0u
1r
1o
04
1W
1O
1J
0<
0;
1X
0N
0A
0=
0J
1Y
1Z
1[
1g
0f
0e
0_
0^
1%
0)
0*
0$
0'
#60000
b1100 !
b111 #
b1000 !
b110 #
b1001 "
b1 "
0q
0o
0n
1m
0t
1s
14
1j
0D
0X
1A
1T
0E
1b
0U
1K
0?
0a
0W
1=
1J
1E
0Y
1U
0g
1_
1^
1@
1M
1f
1e
0_
0@
0%
1$
1'
1)
1*
0$
#65000
b1001 !
b1011 !
b11 !
b1001 "
1o
1v
1u
0s
04
0A
0T
0M
1I
1D
0J
1C
1<
0P
0U
1g
0f
0e
0^
1J
0E
1F
1a
0=
0Q
0g
1_
1^
1@
1%
0)
0*
0'
01
0%
1$
1'
#70000
b1101 "
b111 #
b10 !
b1010 !
0v
1s
1n
1p
14
1W
0O
0I
0D
1P
1N
1A
1d
1X
1R
1E
0a
1=
0P
0J
0E
1Q
1>
1Y
1L
0A
12
0Q
1M
11
1f
0_
1V
0^
0\
0@
01
1)
0$
1&
0'
0(
#75000
b1100 "
b1110 "
b1000 !
b110 "
b1001 !
b1 !
1v
0u
0s
0r
1q
0o
04
0c
0W
1S
1I
1D
1J
0<
1P
1;
0j
0X
0d
0[
1U
1E
0=
1Q
0Y
1\
0V
02
11
1(
0&
#80000
b11 #
b1 #
b101 !
b0 #
b100 "
b111 !
b1100 "
0q
1o
1u
1t
0n
0m
0l
14
1j
0F
1X
0N
1c
1W
1O
0M
0J
1<
1=
1d
0R
0E
0>
0b
0K
1?
1J
0L
1Y
1>
0d
1[
1e
1_
1^
1a
0=
0Z
0S
0?
1M
12
0M
1Z
1?
0_
0[
0U
0Q
02
1*
1$
1'
0f
0e
0^
0\
1@
1[
1Q
0$
01
1_
1^
1\
0)
0*
0'
0(
11
1$
1'
1(
#85000
b1000 "
b1001 "
b110 !
b1110 !
b1011 "
b1100 !
b11 "
0v
0u
1s
1r
1q
0p
0o
04
0I
0D
0J
0C
0P
1A
1E
0;
0j
1F
0Y
1=
0<
0E
1L
0F
1U
0Z
0=
0U
1M
0L
1g
0_
0^
0@
0[
0g
1f
0\
1V
0M
1%
0$
0'
0f
1e
0V
1@
0%
1)
0(
1&
1]
0)
1*
0&
1`
13
#90000
b1 #
b10 "
b1101 !
b1111 !
b1010 "
1v
1u
0r
1o
1n
14
0c
0O
1I
1D
1J
1C
1;
1N
1Y
1F
0>
0J
1<
1E
1L
0Q
1Z
0?
1=
1U
1M
0e
0]
1[
01
1f
1e
1_
1^
1\
0@
0`
0*
1)
1*
1$
1'
1(
03
#95000
b1110 !
b1100 !
0v
0u
04
1c
1O
0I
0D
1J
0C
0<
0E
0=
0U
0e
0_
0^
0\
1V
0*
0$
0'
0(
1&
#100000
b11 #
b1110 "
b10 #
b110 "
1p
0o
0n
1m
14
0a
1=
0N
1R
1G
0F
1>
1b
0>
0Z
0H
1d
1?
1a
1j
0A
1>
0=
0;
1Q
1A
0[
12
0b
11
0d
02
#105000
b1000 !
b100 "
b1001 !
b1011 !
b1100 "
0q
1o
1v
1u
0t
04
0j
1D
0X
1N
0W
1S
0J
1C
1<
0a
1=
1J
0<
0Y
0>
1[
1U
0L
1a
0=
1b
0?
1L
0a
1=
1e
1^
1\
0V
0M
0b
0[
1d
0Q
1M
1b
1?
1[
0d
1*
1'
1(
0&
12
01
1_
1d
1Q
02
0_
1$
12
11
0$
#110000
b11 !
b11 #
b111 !
b1110 "
b110 !
1q
1n
0v
1t
0s
14
1j
1F
0D
1Y
1X
0O
0G
1E
1B
0S
1a
0=
0N
0A
0J
1<
0E
1H
0U
1A
0?
0[
1>
0L
0j
0A
0>
1;
0e
0^
0\
1V
0b
0Q
1?
0M
1b
0?
0d
1g
0f
0V
1Q
0*
0'
0(
1&
01
0g
1e
1@
1d
0Q
02
1%
0)
0&
11
0e
0%
1*
12
01
0*
#115000
b1010 "
b10 !
0t
0p
04
0c
0X
1W
0Y
#120000
b111 #
b101 #
b0 !
b100 #
b1000 "
b100 !
0q
0u
1t
0n
0m
1l
14
1j
1c
1O
1J
0C
0<
1X
1=
0d
0R
0B
1>
0b
1P
1?
0J
1<
1L
0F
0=
1Y
0?
1Q
02
0L
1=
1M
1Z
0Q
1e
1]
11
0M
1[
1g
0e
0@
0]
1`
01
1*
0g
1_
1^
1\
1@
0`
1%
0*
13
0%
1$
1'
1(
03
#125000
b1001 "
b101 !
b1011 "
b1 !
1v
0t
1r
1q
04
0c
0W
1I
1D
0X
0=
1E
0;
0j
1F
1J
0<
0E
0Y
1U
1L
0a
1=
0U
0Z
1f
0_
0^
0@
1M
0[
0\
1V
1)
0$
0'
1g
0f
0V
0(
1&
1%
0)
0&
#130000
b1001 !
b1111 "
b101 #
b1110 "
1n
0r
1p
1s
14
1X
0O
0F
1E
1C
0>
1;
0=
1c
1N
1Y
0L
1U
1F
1?
1Q
1Z
0M
0g
1f
1\
1L
11
1[
1e
1_
1^
1M
0%
1)
1(
0_
1*
1$
1'
0$
#135000
b1011 !
b1100 "
0q
1u
04
1j
0D
1O
0J
1<
1J
0E
1=
0U
1g
0f
0e
0^
0\
1%
0)
0*
0'
0(
#140000
b111 #
b1111 !
b1000 "
b110 #
b1010 "
1q
0p
1t
0n
1m
14
0j
0F
1D
1a
0c
1W
1>
1b
1K
0?
0J
0L
1E
1A
0Z
0M
0[
0g
1_
1^
1\
1@
1e
0_
0^
0\
0%
1$
1'
1(
1]
1*
0$
0'
0(
1`
13
#145000
b10 "
b111 !
b101 !
b1 !
0u
0t
0s
0o
04
0W
1M
1J
0C
0<
1Z
0X
0=
0P
1[
1f
0e
1V
0@
1F
0a
1=
0Y
0Q
0]
0`
0A
1)
0*
1&
01
03
#150000
b111 #
b11 !
b111 !
1u
1t
1n
14
1c
1W
0O
0M
0J
1<
1a
0Z
0=
1R
0F
1d
0[
1P
0f
1_
1^
1\
0V
1@
1L
1=
1A
1Z
1S
0_
0^
0\
1Q
1[
1U
12
0)
1$
1'
1(
0&
1g
1\
0@
0$
0'
0(
11
1%
1(
#155000
b110 "
b1111 !
b1011 !
0t
1s
1p
04
0a
0W
1O
0P
0N
1C
0[
1P
0Q
0>
1F
0g
1f
1e
1^
1Q
01
1_
0%
1)
1*
1'
11
1$
#160000
b11 #
b1 #
b0 #
b1001 !
b10 "
b1 !
0p
0u
0s
0n
0m
0l
14
1a
0C
0=
0c
1M
1J
0<
1N
0A
0R
0E
1>
0b
0Q
0K
1A
1?
0F
1[
0d
1g
0f
0e
0_
0^
0a
1=
1Q
0>
0Z
0S
01
0L
0g
1f
1e
1^
0A
0?
0[
0U
02
1%
0)
0*
0$
0'
11
0M
0e
0^
0\
1V
0%
1)
1*
1'
0f
1e
0V
1@
0*
0'
0(
1&
1]
0)
1*
0&
1`
13
#165000
b0 !
b1010 "
b100 !
b110 !
b1110 "
b1110 !
1p
1o
0v
1u
1t
1s
04
1C
1X
0I
0D
0J
1<
0P
1F
1Y
1a
0=
0Q
1L
1Z
1A
0e
0]
01
1M
1[
0`
0*
1f
1V
0@
03
1)
1&
#170000
b1111 "
b1101 "
b1 #
b101 "
b1100 !
0u
1n
1r
0q
0o
14
1c
1W
1J
0C
0<
1E
0;
1j
0N
0F
0a
1=
1U
0L
1e
1_
1^
1\
0V
0M
1*
1$
1'
1(
0&
0e
0_
0^
0*
0$
0'
#175000
b1101 !
b1 "
b101 !
b0 "
b111 !
0r
0p
1v
1u
0s
04
1I
0E
1;
1a
1C
0=
0O
1D
0J
1<
1P
1N
0A
1J
0U
1A
1F
1E
1=
1Q
1L
0f
1_
1^
1@
1U
11
1M
1g
0_
0^
0@
0)
1$
1'
0g
1f
1e
1^
1%
0$
0'
0%
1)
1*
1'
#180000
b11 #
b10 "
b10 #
b110 !
b100 !
0v
0u
1q
0n
1m
14
1O
0I
0D
0J
0C
0j
0Y
1R
1G
0E
1>
0U
0P
1J
0<
0L
0F
0Z
0H
1?
1g
0f
0e
0^
0\
0Q
1L
0a
0M
1j
0A
0>
0;
1Q
0g
1f
1V
1%
0)
0*
0'
0(
01
1M
0f
1_
1^
1\
0V
1@
11
0%
1)
1&
1g
0_
0^
0\
0@
0)
1$
1'
1(
0&
1%
0$
0'
0(
#185000
b0 !
b110 "
b100 "
b1 !
b11 !
0q
1p
1v
1u
0t
04
0j
1D
1Y
1C
0W
1S
0J
1<
0X
1J
0<
1U
0L
1a
0=
0Y
1L
0a
1=
0g
1f
1e
1^
1\
0M
1b
0?
0[
1M
0b
1?
1[
1_
1d
0Q
0%
1)
1*
1'
1(
0d
1Q
1$
12
01
0_
02
11
0$
#190000
b1011 !
b101 "
b11 #
b1111 !
b1 "
b11 "
b1110 !
1n
1r
1q
0p
0v
1t
1s
14
1X
0O
0G
1F
1E
0D
1B
1j
0c
0N
1Y
1H
0J
1<
1>
1a
0j
1A
0>
0L
0?
1J
0<
0M
0Q
1L
0=
0e
0^
01
1M
0[
0*
0'
1g
0f
1%
0)
#195000
b1100 !
b100 !
b111 "
b101 "
0q
1p
0u
0s
04
1j
0a
0C
1=
1c
1W
1O
0J
1N
1J
1b
0A
1?
0F
1[
0L
1>
1L
1d
0b
1Q
0g
1f
1e
1_
1^
0M
0?
1M
0d
1g
0f
0e
0_
0^
0Q
12
11
0%
1)
1*
1$
1'
0g
1f
1e
1_
1^
02
1%
0)
0*
0$
0'
01
0%
1)
1*
1$
1'
#200000
b111 #
b1101 "
b101 #
b100 #
b0 !
b1000 !
b1001 "
0t
1s
0p
1o
0n
0m
1l
14
0X
0W
1P
0R
0B
0>
0Y
0[
1Q
1Z
0S
0L
1?
0Z
0e
0_
0^
1[
0M
11
0[
1g
0f
0*
0$
0'
0g
1f
1e
1_
1^
1%
0)
0%
1)
1*
1$
1'
#205000
b1000 "
b1001 !
b1011 !
b1010 "
b10 "
b1111 !
b111 !
b110 "
1v
1u
1t
0s
0r
1q
1p
0o
04
1W
1I
1D
0J
1C
1<
1X
0E
1;
0j
1F
1Y
1E
1L
0F
1a
0=
0Y
0U
1Z
1U
1M
0L
1A
1[
0Z
0f
0_
0^
0\
1@
1f
1^
1\
0@
0M
0[
0)
0$
0'
0(
1_
1)
1'
1(
1$
#210000
b101 #
b111 "
b110 !
b100 !
b0 !
b1000 !
b11 "
0v
0u
0t
1s
1r
0p
1n
14
0W
0O
0I
1J
0C
0<
0X
0N
0;
1Y
1F
0J
1L
0F
0a
1=
0Y
1Z
0L
1M
1[
0Z
0M
0_
0[
1_
0$
1$
#215000
b1 "
b0 "
b1001 !
b1011 !
b1111 !
1v
1u
1t
0r
0q
04
0c
1W
1I
0D
1J
1a
0=
1;
1j
1<
0E
1=
0U
0f
0_
0^
0\
1@
1]
0)
0$
0'
0(
1`
13
#220000
b111 #
b1000 "
b110 #
b1100 "
b1101 !
b1001 !
0u
0t
1p
1o
0n
1m
14
1c
0W
1O
0J
0a
1Y
1N
1D
1b
0P
1K
0?
1P
0A
1Z
0Q
1>
1E
1M
1Q
1[
1g
0e
0]
0@
01
0`
11
1%
0*
03
#225000
b1110 "
b1111 "
b111 "
b11 "
b1101 !
1t
1r
1q
0p
0o
04
1a
0Z
1X
1W
0E
0;
0j
1F
0Y
0N
1A
0[
1Y
1J
0<
0>
0g
1f
1V
0=
0%
1)
1&
#230000
b101 !
b111 #
b1 "
b1001 "
0q
1o
1n
0s
14
1j
0F
0D
0A
1d
1R
1E
0P
0J
1<
1L
0E
1Z
1S
0Q
12
1=
1U
1[
1g
0f
0V
01
0g
1f
1e
1_
1^
1\
1%
0)
0&
0%
1)
1*
1$
1'
1(
#235000
b111 !
b1101 "
b1111 !
b1111 "
b111 "
1q
1p
0o
1u
1s
04
0j
1D
1C
0=
0X
1A
0c
0O
0M
1J
1P
0J
1E
1F
0Y
0d
0P
0e
0_
0^
1Q
0Q
1g
0f
02
0*
0$
0'
11
0g
1f
01
1%
0)
0%
1)
#240000
b11 #
b1 #
b110 "
b1011 !
b0 #
b10 "
b11 !
b0 "
b1000 "
0t
0s
0r
0q
0p
1o
0n
0m
0l
14
1c
0W
1O
1P
0A
0E
1;
1j
0F
1d
0R
1>
0b
0K
0d
1J
0L
0Z
0S
1?
1M
12
0M
0[
0U
1Q
1e
1_
1^
02
0f
0_
0^
0\
1@
11
1*
1$
1'
1]
0)
0$
0'
0(
1`
13
#245000
b1 !
b101 !
b1100 "
b1101 !
b100 "
1p
0o
0u
1t
1s
04
0C
1X
1A
1W
0J
0P
1Y
1Z
1[
0e
1_
1^
0]
1\
0`
0*
1$
1'
1(
03
#250000
b1100 !
b101 "
b1 #
1n
1r
0v
14
1E
0D
0>
0I
0;
1U
0?
1J
0<
1g
0_
0^
0@
0Q
0a
1=
0g
1f
1%
0$
0'
01
0%
1)
#255000
b111 "
b1110 !
b110 !
b1111 "
b111 !
b1110 "
1v
1u
0s
0r
1q
1o
04
0O
1I
1D
0J
1C
1<
1P
0A
0E
1;
0j
1F
1E
1L
1a
0=
0U
1U
1M
0f
1_
1^
1@
1f
1e
0@
0)
1$
1'
1)
1*
#260000
b11 #
b10 #
b110 "
0o
0n
1m
14
1N
1A
1R
1O
1G
0E
1b
0U
1Q
0P
0Q
1>
0b
0Z
1S
0L
0H
1d
1g
0f
0e
0_
0^
0\
11
0g
1f
1V
1?
0d
0[
1U
0M
0I
1j
0A
0>
1=
0;
01
12
1%
0)
0*
0$
0'
0(
1Q
1e
1^
1\
0V
1b
0?
1[
0%
1)
1&
02
1g
0f
0e
1d
0Q
0^
11
1*
1'
1(
0&
0g
1f
1%
0)
0*
12
01
0'
0%
1)
#265000
b11 !
b10 "
b1 !
b0 !
b11 "
1r
0p
0v
0u
0t
04
1E
0a
0Y
0C
0c
0W
0D
1J
0<
0X
0b
1?
0F
0E
1L
0=
0d
1Q
1M
0[
02
11
#270000
b1 "
b1000 !
b11 #
b1100 !
b1110 !
b1111 !
1n
1v
1u
1t
1s
0q
14
1X
0O
0G
1E
1D
1C
1B
1W
0S
1I
0J
1<
1=
0N
0j
1Y
1H
0U
1F
1[
0L
1a
0=
1>
1j
1A
0>
1=
1g
0f
0\
0M
1b
0[
1J
0b
0?
1[
0g
1e
1@
1d
1%
0)
0(
1L
0d
0Q
0e
1_
1^
1\
0%
1*
12
1M
02
01
0*
1$
1'
1(
1f
0_
0^
0\
1V
0@
1)
0$
0'
0(
1&
#275000
b1001 "
b1000 "
b111 !
b11 !
0t
0s
0r
1o
04
1c
0X
0W
1O
0=
0A
1S
1;
0Y
0[
1b
1U
1g
0f
1\
0V
1d
1%
0)
1(
0&
12
#280000
b111 #
b101 #
b1010 "
b100 #
b1 !
b10 "
b11 "
0u
1r
1q
0o
0n
0m
1l
14
0c
0J
0C
0S
0E
0;
0j
0F
1N
1A
0d
0R
0B
1>
0b
1P
1?
0L
1F
0U
1J
0<
1Q
0>
0?
02
0M
1L
0g
1f
0\
1V
0a
1=
1?
11
0f
1e
0V
1@
1M
0A
0%
1)
0(
1&
1]
1f
0e
1V
0@
0)
1*
0&
0]
1)
0*
1&
#285000
b111 "
b11 !
b1111 "
1u
1p
1o
04
1c
0J
1C
1<
1Y
0=
0N
0F
1=
1Z
1>
0L
1[
0?
0M
1g
0f
0V
0Q
0g
1_
1^
1\
1@
1%
0)
0&
01
0%
1$
1'
1(
#290000
b10 !
b1010 !
b1110 !
b101 #
1n
0v
1t
1s
14
0Y
1X
0O
1F
1E
0>
0c
0I
1a
0=
1N
0Z
1Y
1L
1U
1?
1J
0<
1A
1Q
0[
1Z
1M
1g
0_
0^
0@
0a
1=
11
0g
1f
1[
0A
1%
0$
0'
1e
1^
0%
1)
1*
1'
#295000
b1110 "
b1010 "
b10 "
b1111 !
b1011 !
1v
0t
0r
0p
0o
04
1c
1O
1I
0X
1;
0C
0N
1A
0J
1<
0Y
0F
0L
1a
0=
0Z
0M
0[
1_
1$
#300000
b111 #
b0 "
b1001 !
b1 !
b110 #
b1 "
b101 "
b0 !
0v
0u
0s
1r
0q
1p
0n
1m
14
0c
1T
0I
0D
1J
0<
0P
1N
0E
0;
1j
0a
1Y
1=
1b
0U
1K
0?
1U
1E
0=
0Q
1>
0A
1Z
0f
0_
0^
0\
1@
1M
1g
0e
1\
0@
1[
01
0)
0$
0'
0(
0g
1f
1e
1_
1^
1%
0*
1(
0%
1)
1*
1$
1'
#305000
b1101 "
b100 !
b1111 "
b1100 !
b1011 "
1t
1s
1q
0p
1o
04
1c
1a
0Z
1X
1W
1P
0j
1F
0Y
1A
0[
1Y
1Q
0J
0e
0_
0^
11
0*
0$
0'
#310000
b111 #
b1101 !
b1001 "
b101 !
b1101 "
0q
1p
1v
0s
1n
14
1j
0F
0a
1C
1=
0T
1I
0P
0N
0A
1d
1R
0E
1<
1L
1F
1[
0U
0Q
0>
1Z
1S
12
1a
0=
0\
1V
1U
01
1e
1_
1^
1\
0V
0(
1&
1*
1$
1'
1(
0&
#315000
b111 !
b1100 "
b100 "
b110 !
b110 "
b1110 !
b10 "
0r
1q
0p
0o
0v
1u
1s
04
0S
0I
1;
0j
1D
0C
1=
0X
1A
0c
0W
0O
1J
1P
0U
0J
1E
0F
0[
0Y
0d
0P
1Q
0e
0_
0^
0\
1V
0Q
02
11
1g
0f
0V
0*
0$
0'
0(
1&
01
1%
0)
0&
#320000
b11 #
b1 #
b1010 !
b0 #
b110 "
1p
0t
0n
0m
0l
14
0a
1C
1c
1W
1O
1d
0R
0E
0D
1>
0b
1U
0K
1?
1F
0d
1[
0Z
0L
0U
1\
12
1Q
1L
0g
1f
0\
1V
0[
0M
02
1(
0f
1e
0V
1M
1@
11
0%
1)
0(
1&
1f
0e
1V
0@
1]
0)
1*
0&
0]
1)
0*
1&
#325000
b1000 !
b111 "
b1100 !
b11 "
1r
0p
0u
1t
04
0;
1a
0C
1J
0<
1X
0J
0F
0=
0L
0M
0f
1e
0V
1@
1]
0)
1*
0&
1`
13
#330000
b1101 !
b1 #
b10 "
b1001 !
b110 "
0r
1p
1n
1v
0t
14
1I
1;
0a
1Y
0X
0O
1F
1D
0>
0W
1J
0?
1Z
1L
1E
0Q
1[
1M
1U
1f
1_
0]
1^
1\
0@
01
0`
1)
1$
1'
1(
03
#335000
b100 "
b1101 !
b0 "
1t
0q
0p
04
1a
1X
1W
1O
1j
0F
0Y
1Y
0J
1<
0L
0Z
1Z
1=
0M
0[
1[
0_
0e
0^
0$
0*
0'
#340000
b11 #
b1111 !
b10 #
b100 "
1p
1u
0n
1m
14
1C
0=
0c
1J
1R
1G
0E
0U
1L
0Z
1S
0H
0f
1_
1^
1@
1M
0[
1U
0I
0j
1>
1=
0;
0)
1$
1'
1g
0_
0^
0@
0<
1?
1[
0=
1Q
0g
1f
1e
1_
1^
1%
0$
0'
0[
0_
11
0%
1)
1*
1$
1'
0e
0^
0$
0*
0'
#345000
b1100 "
b111 !
b11 !
b1000 "
0t
0s
0p
1o
04
1c
0a
0X
0W
0Y
1b
0A
0?
1d
0b
0Q
0d
1g
0f
12
01
02
1%
0)
#350000
b1001 "
b11 #
b1 "
b111 !
1t
1n
1r
0o
14
1X
1W
0O
1=
0G
1F
1E
1B
0S
1I
1N
1Y
1[
1H
0U
0J
1<
0>
0g
1f
0\
1V
1a
1j
1>
0L
1?
1b
1A
1J
0M
1Q
0%
1)
0(
1&
1d
0b
1L
0f
1_
1^
1\
0V
1@
11
0d
1M
12
0)
1$
1'
1(
0&
1g
0_
0^
0\
0@
02
1%
0$
0'
0(
#355000
b110 !
b100 !
b101 "
b1101 "
1p
1o
0v
0u
04
0C
0=
0N
0A
1S
1O
0I
0D
0J
0F
0[
0>
1b
1U
1J
0<
0L
1L
0g
1f
1\
0?
1d
0a
1=
0M
1M
0Q
0b
1?
1[
1e
1_
1^
0%
1)
1(
12
0d
1Q
01
1*
1$
1'
0_
02
11
0$
#360000
b111 #
b1111 "
b101 #
b1100 !
b100 #
b1101 !
b1111 !
b1011 "
1v
1u
1s
1q
0p
0n
0m
1l
14
0c
0S
1I
1D
0J
1C
1<
1P
1N
0j
1F
1a
0=
0R
0B
1>
0E
0F
1=
0>
1A
0?
0[
1Z
0U
0L
1[
1?
0e
0^
1g
0f
0\
0M
0*
0'
0g
1_
1^
1\
1@
1%
0)
0(
0%
1$
1'
1(
#365000
b1010 "
b1011 !
b10 "
b0 "
b11 !
b1 !
0u
0t
0s
0r
0q
0o
04
0W
1J
0C
0<
0X
0=
1E
1;
1j
1F
1L
0F
0a
1=
0Y
1U
0J
1<
1M
0L
0A
0Z
1g
0_
0^
0@
1a
0=
0g
1f
1e
1^
0M
0[
1A
1%
0$
0'
1_
0%
1)
1*
1'
1$
#370000
b101 #
b0 !
b100 "
b101 "
b100 !
b1100 !
1r
1p
0v
1t
1s
1n
14
0I
0;
1C
1c
1W
0D
0N
1J
0<
1F
0E
1L
0a
1=
0U
1M
0f
0_
0^
0\
1@
1f
0e
1V
0@
1]
0)
0$
0'
0(
0]
1)
0*
1&
#375000
b1101 "
b1110 !
b1001 "
b1000 "
b110 !
1u
0s
0r
0p
1o
04
0W
0O
0J
0C
1<
0A
1;
1a
0=
1X
0F
1=
1J
1Y
0L
1Z
0M
1[
0f
1_
1^
1\
0V
1@
0)
1$
1'
1(
0&
#380000
b111 #
b1010 "
b110 #
b1110 "
b1111 "
1r
1q
1p
0n
1m
14
1E
0;
0j
1F
0Y
1C
0=
1T
1O
1b
1K
0?
1U
0<
0Z
0F
0P
1g
0_
0^
0@
0a
1=
0[
0Q
0g
1f
1e
1^
1%
0$
0'
01
0%
1)
1*
1'
#385000
b111 !
b1101 "
b1001 "
b1000 "
0r
0q
0p
1v
04
1I
0E
1;
1j
1F
1D
1a
1Y
0=
1W
0T
1<
0U
1E
1=
0f
0e
0^
0\
1@
0)
0*
0'
0(
