Contador3bits/simulation/qsim/Contador3bits.msim.vcd
$comment
	File created using the following command:
		vcd file Contador3bits.msim.vcd -direction
$end
$date
	Thu May 03 16:33:35 2018
$end
$version
	ModelSim Version 10.1d
$end
$timescale
	1ps
$end
$scope module Contador3bits_vlg_vec_tst $end
$var reg 1 ! clear $end
$var reg 1 " clock $end
$var reg 1 # hasLoad $end
$var reg 3 $ load [2:0] $end
$var wire 1 % Q [2] $end
$var wire 1 & Q [1] $end
$var wire 1 ' Q [0] $end
$var wire 1 ( sampler $end
$scope module i1 $end
$var wire 1 ) gnd $end
$var wire 1 * vcc $end
$var wire 1 + unknown $end
$var tri1 1 , devclrn $end
$var tri1 1 - devpor $end
$var tri1 1 . devoe $end
$var wire 1 / clock~combout $end
$var wire 1 0 clock~clkctrl_outclk $end
$var wire 1 1 hasLoad~combout $end
$var wire 1 2 count~0_combout $end
$var wire 1 3 clear~combout $end
$var wire 1 4 clear~clkctrl_outclk $end
$var wire 1 5 count~1_combout $end
$var wire 1 6 count~2_combout $end
$var wire 1 7 count~3_combout $end
$var wire 1 8 count [2] $end
$var wire 1 9 count [1] $end
$var wire 1 : count [0] $end
$var wire 1 ; load~combout [2] $end
$var wire 1 < load~combout [1] $end
$var wire 1 = load~combout [0] $end
$upscope $end
$upscope $end
$enddefinitions $end
#0
$dumpvars
1!
0"
0#
b0 $
0'
0&
0%
x(
0)
1*
x+
1,
1-
1.
0/
00
01
12
13
14
05
06
07
0:
09
08
0=
0<
0;
$end
#10000
1"
1/
10
0(
#20000
0"
0/
00
1(
#30000
1"
1/
10
0(
#40000
b1 $
0"
1=
0/
00
1(
#50000
1"
1/
10
0(
#60000
1#
0"
11
0/
00
1(
#70000
1"
1/
10
0(
#80000
0!
b11 $
b10 $
0"
03
0=
1<
0/
00
04
1(
02
15
#90000
1"
1/
10
0(
19
1&
#100000
0"
0/
00
1(
#110000
1"
1/
10
0(
#120000
b11 $
0"
1=
0/
00
1(
12
#130000
1"
1/
10
0(
1:
1'
#140000
1!
0"
13
0/
00
14
1(
09
0:
0&
0'
#150000
1"
1/
10
0(
#160000
b111 $
b101 $
b100 $
0!
0"
0=
0<
1;
03
0/
00
04
1(
02
05
17
#170000
1"
1/
10
0(
18
1%
#180000
0"
0/
00
1(
#190000
1"
1/
10
0(
#200000
b101 $
1!
0"
1=
13
0/
00
14
1(
12
08
0%
#210000
1"
1/
10
0(
#220000
0!
0"
03
0/
00
04
1(
#230000
1"
1/
10
0(
18
1:
1%
1'
#240000
0#
b111 $
b110 $
0"
01
0=
1<
0/
00
1(
07
16
15
02
17
#250000
1"
1/
10
0(
19
0:
12
1&
0'
#260000
0"
0/
00
1(
#270000
1"
1/
10
0(
1:
06
05
02
1'
07
#280000
b111 $
0"
1=
0/
00
1(
#290000
1"
1/
10
0(
08
09
0:
12
0%
0&
0'
#300000
1#
0"
11
0/
00
1(
17
15
#310000
1"
1/
10
0(
18
19
1:
1%
1&
1'
#320000
b11 $
b1 $
b0 $
0"
0=
0<
0;
0/
00
1(
02
05
07
#330000
1"
1/
10
0(
08
09
0:
0%
0&
0'
#340000
0"
0/
00
1(
#350000
1"
1/
10
0(
#360000
b1 $
0"
1=
0/
00
1(
12
#370000
1"
1/
10
0(
1:
1'
#380000
1!
0"
13
0/
00
14
1(
0:
0'
#390000
1"
1/
10
0(
#400000
b11 $
b10 $
0"
0=
1<
0/
00
1(
02
15
#410000
1"
1/
10
0(
#420000
0!
0"
03
0/
00
04
1(
#430000
1"
1/
10
0(
19
1&
#440000
b11 $
0"
1=
0/
00
1(
12
#450000
1"
1/
10
0(
1:
1'
#460000
1!
0"
13
0/
00
14
1(
09
0:
0&
0'
#470000
1"
1/
10
0(
#480000
b111 $
b101 $
b100 $
0"
0=
0<
1;
0/
00
1(
02
05
17
#490000
1"
1/
10
0(
#500000
0!
0"
03
0/
00
04
1(
#510000
1"
1/
10
0(
18
1%
#520000
b101 $
1!
0"
1=
13
0/
00
14
1(
12
08
0%
#530000
1"
1/
10
0(
#540000
0#
0!
0"
01
03
0/
00
04
1(
07
#550000
1"
1/
10
0(
1:
15
02
1'
#560000
b111 $
b110 $
0"
0=
1<
0/
00
1(
#570000
1"
1/
10
0(
19
0:
12
1&
0'
#580000
0"
0/
00
1(
#590000
1"
1/
10
0(
1:
16
05
02
1'
17
#600000
b111 $
0"
1=
0/
00
1(
#610000
1"
1/
10
0(
18
09
0:
12
1%
0&
0'
#620000
1!
0"
13
0/
00
14
1(
08
06
0%
07
#630000
1"
1/
10
0(
#640000
b11 $
b1 $
b0 $
0"
0=
0<
0;
0/
00
1(
#650000
1"
1/
10
0(
#660000
0!
0"
03
0/
00
04
1(
#670000
1"
1/
10
0(
1:
15
02
1'
#680000
b1 $
0"
1=
0/
00
1(
#690000
1"
1/
10
0(
19
0:
12
1&
0'
#700000
0"
0/
00
1(
#710000
1"
1/
10
0(
1:
16
05
02
1'
17
#720000
b11 $
1!
b10 $
0"
0=
1<
13
0/
00
14
1(
09
0:
06
12
0&
0'
07
#730000
1"
1/
10
0(
#740000
0!
0"
03
0/
00
04
1(
#750000
1"
1/
10
0(
1:
15
02
1'
#760000
b11 $
1!
0"
1=
13
0/
00
14
1(
0:
05
12
0'
#770000
1"
1/
10
0(
#780000
0!
0"
03
0/
00
04
1(
#790000
1"
1/
10
0(
1:
15
02
1'
#800000
b111 $
b101 $
b100 $
0"
0=
0<
1;
0/
00
1(
#810000
1"
1/
10
0(
19
0:
12
1&
0'
#820000
1!
0"
13
0/
00
14
1(
09
05
0&
#830000
1"
1/
10
0(
#840000
1#
b101 $
0!
0"
11
1=
03
0/
00
04
1(
17
#850000
1"
1/
10
0(
18
1:
1%
1'
#860000
0"
0/
00
1(
#870000
1"
1/
10
0(
#880000
b111 $
b110 $
1!
0"
0=
1<
13
0/
00
14
1(
02
15
08
0:
0%
0'
#890000
1"
1/
10
0(
#900000
0#
0"
01
0/
00
1(
07
05
12
#910000
1"
1/
10
0(
#920000
b111 $
0"
1=
0/
00
1(
#930000
1"
1/
10
0(
#940000
0"
0/
00
1(
#950000
1"
1/
10
0(
#960000
b11 $
b1 $
0!
1#
b0 $
0"
0=
0<
0;
03
11
0/
00
04
1(
02
#970000
1"
1/
10
0(
#980000
1!
0"
13
0/
00
14
1(
#990000
1"
1/
10
0(
