FFD/simulation/qsim/FilpFlopD.msim.vcd
$comment
	File created using the following command:
		vcd file FilpFlopD.msim.vcd -direction
$end
$date
	Wed Apr 25 17:32:09 2018
$end
$version
	ModelSim Version 10.1d
$end
$timescale
	1ps
$end
$scope module FlipFlopD_vlg_vec_tst $end
$var reg 1 ! clock $end
$var reg 1 " D $end
$var reg 1 # reset $end
$var wire 1 $ Q $end
$var wire 1 % Q_NOT $end
$var wire 1 & sampler $end
$scope module i1 $end
$var wire 1 ' gnd $end
$var wire 1 ( vcc $end
$var wire 1 ) unknown $end
$var tri1 1 * devclrn $end
$var tri1 1 + devpor $end
$var tri1 1 , devoe $end
$var wire 1 - Q~output_o $end
$var wire 1 . Q_NOT~output_o $end
$var wire 1 / clock~input_o $end
$var wire 1 0 clock~inputclkctrl_outclk $end
$var wire 1 1 D~input_o $end
$var wire 1 2 reset~input_o $end
$var wire 1 3 reset~inputclkctrl_outclk $end
$var wire 1 4 Q~reg0_q $end
$var wire 1 5 Q_NOT~reg0_q $end
$upscope $end
$upscope $end
$enddefinitions $end
#0
$dumpvars
0!
0"
1#
0$
1%
x&
0'
1(
x)
1*
1+
1,
0-
1.
0/
00
01
12
13
04
05
$end
#10000
1!
1"
1/
11
10
0&
#20000
0#
0!
0"
02
0/
01
03
00
1&
#30000
1#
1!
1"
12
1/
11
13
10
0&
#40000
0#
0!
0"
02
0/
01
03
00
1&
#50000
1#
1!
12
1/
13
10
0&
#60000
1"
0#
0!
11
02
0/
03
00
1&
#70000
1#
1!
12
1/
13
10
0&
#80000
0"
0!
01
0/
00
1&
#90000
1!
1/
10
0&
#100000
0#
1"
0!
02
11
0/
03
00
1&
#110000
0"
1!
01
1/
10
0&
#120000
1#
1"
0!
12
11
0/
13
00
1&
#130000
0"
1!
01
1/
10
0&
#140000
0!
0/
00
1&
#150000
0#
1!
02
1/
03
10
0&
#160000
1"
1#
0!
11
12
0/
13
00
1&
#170000
1!
1/
10
0&
#180000
0!
0/
00
1&
#190000
0"
1!
01
1/
10
0&
#200000
0#
0!
02
0/
03
00
1&
#210000
1"
1#
1!
11
12
1/
13
10
0&
#220000
0#
0!
02
0/
03
00
1&
#230000
1!
1/
10
0&
15
14
0.
1-
0%
1$
#240000
1#
0!
12
0/
13
00
1&
05
04
1.
0-
1%
0$
#250000
0"
0#
1!
01
02
1/
03
10
0&
#260000
1"
1#
0!
11
12
0/
13
00
1&
#270000
0"
0#
1!
01
02
1/
03
10
0&
#280000
1"
0!
11
0/
00
1&
#290000
1!
1/
10
0&
15
14
0.
1-
0%
1$
#300000
0!
0/
00
1&
#310000
1#
1!
12
1/
13
10
0&
05
04
1.
0-
1%
0$
#320000
0"
0#
0!
01
02
0/
03
00
1&
#330000
1#
1!
12
1/
13
10
0&
#340000
0!
0/
00
1&
#350000
1!
1/
10
0&
#360000
0!
0/
00
1&
#370000
1"
1!
11
1/
10
0&
#380000
0#
0"
0!
02
01
0/
03
00
1&
#390000
1#
1!
12
1/
13
10
0&
#400000
0!
0/
00
1&
#410000
1"
0#
1!
11
02
1/
03
10
0&
#420000
0"
0!
01
0/
00
1&
#430000
1"
1!
11
1/
10
0&
15
14
0.
1-
0%
1$
#440000
0!
0/
00
1&
#450000
0"
1!
01
1/
10
0&
05
04
1.
0-
1%
0$
#460000
1#
1"
0!
12
11
0/
13
00
1&
#470000
0"
1!
01
1/
10
0&
#480000
0#
1"
0!
02
11
0/
03
00
1&
#490000
1#
0"
1!
12
01
1/
13
10
0&
#500000
1"
0!
11
0/
00
1&
#510000
1!
1/
10
0&
#520000
0!
0/
00
1&
#530000
0"
1!
01
1/
10
0&
#540000
0#
0!
02
0/
03
00
1&
#550000
1!
1/
10
0&
#560000
0!
0/
00
1&
#570000
1"
1!
11
1/
10
0&
15
14
0.
1-
0%
1$
#580000
0!
0/
00
1&
#590000
0"
1!
01
1/
10
0&
05
04
1.
0-
1%
0$
#600000
1#
1"
0!
12
11
0/
13
00
1&
#610000
0"
1!
01
1/
10
0&
#620000
0#
0!
02
0/
03
00
1&
#630000
1"
1!
11
1/
10
0&
15
14
0.
1-
0%
1$
#640000
1#
0"
0!
12
01
0/
13
00
1&
05
04
1.
0-
1%
0$
#650000
0#
1"
1!
02
11
1/
03
10
0&
#660000
0"
0!
01
0/
00
1&
#670000
1#
1"
1!
12
11
1/
13
10
0&
#680000
0#
0"
0!
02
01
0/
03
00
1&
#690000
1#
1"
1!
12
11
1/
13
10
0&
#700000
0!
0/
00
1&
#710000
1!
1/
10
0&
#720000
0#
0!
02
0/
03
00
1&
#730000
1#
1!
12
1/
13
10
0&
#740000
0#
0!
02
0/
03
00
1&
#750000
0"
1!
01
1/
10
0&
#760000
0!
0/
00
1&
#770000
1#
1"
1!
12
11
1/
13
10
0&
#780000
0!
0/
00
1&
#790000
0"
1!
01
1/
10
0&
#800000
0#
1"
0!
02
11
0/
03
00
1&
#810000
1#
1!
12
1/
13
10
0&
#820000
0!
0/
00
1&
#830000
0#
1!
02
1/
03
10
0&
#840000
0"
0!
01
0/
00
1&
#850000
1#
1!
12
1/
13
10
0&
#860000
0#
0!
02
0/
03
00
1&
#870000
1#
1!
12
1/
13
10
0&
#880000
1"
0#
0!
11
02
0/
03
00
1&
#890000
1#
1!
12
1/
13
10
0&
#900000
0#
0!
02
0/
03
00
1&
#910000
1#
1!
12
1/
13
10
0&
#920000
0"
0#
0!
01
02
0/
03
00
1&
#930000
1"
1#
1!
11
12
1/
13
10
0&
#940000
0!
0/
00
1&
#950000
0#
1!
02
1/
03
10
0&
#960000
0"
0!
01
0/
00
1&
#970000
1"
1!
11
1/
10
0&
15
14
0.
1-
0%
1$
#980000
1#
0!
12
0/
13
00
1&
05
04
1.
0-
1%
0$
#990000
1!
1/
10
0&
